<?xml version="1.0" encoding="UTF-8"?>
<svg width="72px" height="72px" viewBox="0 0 72 72" version="1.1" xmlns="http://www.w3.org/2000/svg" xmlns:xlink="http://www.w3.org/1999/xlink">
    <title>Group 6</title>
    <defs>
        <circle id="path-1" cx="18" cy="18" r="18"></circle>
        <filter x="-81.9%" y="-68.1%" width="263.9%" height="263.9%" filterUnits="objectBoundingBox" id="filter-2">
            <feOffset dx="0" dy="5" in="SourceAlpha" result="shadowOffsetOuter1"></feOffset>
            <feGaussianBlur stdDeviation="9" in="shadowOffsetOuter1" result="shadowBlurOuter1"></feGaussianBlur>
            <feComposite in="shadowBlurOuter1" in2="SourceAlpha" operator="out" result="shadowBlurOuter1"></feComposite>
            <feColorMatrix values="0 0 0 0 1   0 0 0 0 0.139977134   0 0 0 0 0.77371776  0 0 0 0.52267264 0" type="matrix" in="shadowBlurOuter1"></feColorMatrix>
        </filter>
    </defs>
    <g id="Symbols" stroke="none" stroke-width="1" fill="none" fill-rule="evenodd">
        <g id="btn/questionCorrect" transform="translate(-282, -4)">
            <g id="Group-6" transform="translate(300, 17)">
                <g id="Oval">
                    <use fill="black" fill-opacity="1" filter="url(#filter-2)" xlink:href="#path-1"></use>
                    <circle stroke="#FFFFFF" stroke-width="2" stroke-linejoin="square" fill="#408240" fill-rule="evenodd" cx="18" cy="18" r="17"></circle>
                </g>
                <polygon id="Path" fill="#FFFFFF" fill-rule="nonzero" points="15.595092 24 10 18.3118503 11.398773 16.8898129 15.595092 21.1559252 24.601227 12 26 13.4220374"></polygon>
            </g>
        </g>
    </g>
</svg>